[35m[Appium][39m Welcome to Appium v1.22.3
[35m[Appium][39m Non-default server args:
[35m[Appium][39m   port: 61169
[35m[Appium][39m   loglevel: info
[35m[Appium][39m   tmpDir: C:\Users\MSI\AppData\Local\Temp\\Katalon\Appium\Temp1693898085939
[35m[Appium][39m   chromedriverPort: 61170
[35m[Appium][39m Deprecated server args:
[35m[Appium][39m   [31m--chromedriver-port[39m => --default-capabilities
[35m[Appium][39m Default capabilities, which will be added to each request unless overridden by desired capabilities:
[35m[Appium][39m   chromedriverPort: 61170
[35m[Appium][39m Appium REST http interface listener started on 0.0.0.0:61169
[35m[HTTP][39m [37m-->[39m [37mGET[39m [37m/wd/hub/status[39m
[35m[HTTP][39m [90m{}[39m
[35m[HTTP][39m [37m<-- GET /wd/hub/status [39m[32m200[39m [90m8 ms - 68[39m
[35m[HTTP][39m [90m[39m
[35m[HTTP][39m [37m-->[39m [37mGET[39m [37m/wd/hub/status[39m
[35m[HTTP][39m [90m{}[39m
[35m[HTTP][39m [37m<-- GET /wd/hub/status [39m[32m200[39m [90m1 ms - 68[39m
[35m[HTTP][39m [90m[39m
[35m[HTTP][39m [37m-->[39m [37mPOST[39m [37m/wd/hub/session[39m
[35m[HTTP][39m [90m{"desiredCapabilities":{"appActivity":".Settings","appPackage":"com.android.settings","newCommandTimeout":1800,"platformVersion":"9","automationName":"uiautomator2","autoGrantPermissions":true,"platformName":"Android","udid":"192.168.5.31:5555","deviceName":"samsung SM-G955F (Android 9)","platform":"ANDROID","systemPort":8254},"capabilities":{"firstMatch":[{"appium:appActivity":".Settings","appium:appPackage":"com.android.settings","appium:autoGrantPermissions":true,"appium:automationName":"uiautomator2","appium:deviceName":"samsung SM-G955F (Android 9)","appium:newCommandTimeout":1800,"platform":"ANDROID","platformName":"android","appium:platformVersion":"9","appium:systemPort":8254,"appium:udid":"192.168.5.31:5555"}]}}[39m
[35m[BaseDriver][39m The following capabilities are not standard capabilities and should have an extension prefix:
[35m[BaseDriver][39m   platform
[35m[BaseDriver][39m   chromedriverPort
[35m[Appium][39m Appium v1.22.3 creating new AndroidUiautomator2Driver (v1.70.1) session
[35m[BaseDriver][39m The following capabilities were provided, but are not recognized by Appium:
[35m[BaseDriver][39m   platform
[35m[BaseDriver][39m Session created with session id: 2f41c18d-e20b-4c01-a5d2-89af0e6f0e45
[35m[UiAutomator2][39m Starting 'com.android.settings' directly on the device
[35m[ADB][39m Found 1 'build-tools' folders under 'C:\Users\MSI\.katalon\tools\android_sdk' (newest first):
[35m[ADB][39m     C:/Users/MSI/.katalon/tools/android_sdk/build-tools/29.0.3
[35m[ADB][39m Using 'adb.exe' from 'C:\Users\MSI\.katalon\tools\android_sdk\platform-tools\adb.exe'
[35m[AndroidDriver][39m Retrieving device list
[35m[AndroidDriver][39m Using device: 192.168.5.31:5555
[35m[ADB][39m Using 'adb.exe' from 'C:\Users\MSI\.katalon\tools\android_sdk\platform-tools\adb.exe'
[35m[ADB][39m Getting device platform version
[35m[UiAutomator2][39m Relaxing hidden api policy
[35m[AndroidDriver][39m No app sent in, not parsing package/activity
[35m[ADB][39m Using 'apksigner.jar' from 'C:\Users\MSI\.katalon\tools\android_sdk\build-tools\29.0.3\lib\apksigner.jar'
[35m[ADB][39m 'C:\Users\MSI\AppData\Roaming\npm\node_modules\appium\node_modules\appium-uiautomator2-server\apks\appium-uiautomator2-server-v4.27.0.apk' is signed with the default certificate
[35m[ADB][39m 'C:\Users\MSI\AppData\Roaming\npm\node_modules\appium\node_modules\appium-uiautomator2-server\apks\appium-uiautomator2-server-debug-androidTest.apk' is signed with the default certificate
[35m[UiAutomator2][39m Server packages are not going to be (re)installed
[35m[ADB][39m Adding packages ["io.appium.settings","io.appium.uiautomator2.server","io.appium.uiautomator2.server.test"] to Doze whitelist
[35m[UiAutomator2][39m Starting UIAutomator2 server 4.27.0
[35m[UiAutomator2][39m Using UIAutomator2 server from 'C:\Users\MSI\AppData\Roaming\npm\node_modules\appium\node_modules\appium-uiautomator2-server\apks\appium-uiautomator2-server-v4.27.0.apk' and test from 'C:\Users\MSI\AppData\Roaming\npm\node_modules\appium\node_modules\appium-uiautomator2-server\apks\appium-uiautomator2-server-debug-androidTest.apk'
[35m[UiAutomator2][39m Waiting up to 30000ms for UiAutomator2 to be online...
[35m[WD Proxy][39m socket hang up
[35m[WD Proxy][39m socket hang up
[35m[WD Proxy][39m socket hang up
[35m[WD Proxy][39m socket hang up
[35m[WD Proxy][39m Determined the downstream protocol as 'W3C'
[35m[AndroidDriver][39m Screen already unlocked, doing nothing
[35m[UiAutomator2][39m Starting 'com.android.settings/.Settings and waiting for 'com.android.settings/.Settings'
[35m[Appium][39m New AndroidUiautomator2Driver session created successfully, session 2f41c18d-e20b-4c01-a5d2-89af0e6f0e45 added to master session list
[35m[HTTP][39m [37m<-- POST /wd/hub/session [39m[32m200[39m [90m15843 ms - 1179[39m
[35m[HTTP][39m [90m[39m
[35m[HTTP][39m [37m-->[39m [37mGET[39m [37m/wd/hub/session/2f41c18d-e20b-4c01-a5d2-89af0e6f0e45[39m
[35m[HTTP][39m [90m{}[39m
[35m[HTTP][39m [37m<-- GET /wd/hub/session/2f41c18d-e20b-4c01-a5d2-89af0e6f0e45 [39m[32m200[39m [90m42 ms - 1133[39m
[35m[HTTP][39m [90m[39m
[35m[HTTP][39m [37m-->[39m [37mGET[39m [37m/wd/hub/session/2f41c18d-e20b-4c01-a5d2-89af0e6f0e45[39m
[35m[HTTP][39m [90m{}[39m
[35m[HTTP][39m [37m<-- GET /wd/hub/session/2f41c18d-e20b-4c01-a5d2-89af0e6f0e45 [39m[32m200[39m [90m320 ms - 1133[39m
[35m[HTTP][39m [90m[39m
[35m[HTTP][39m [37m-->[39m [37mGET[39m [37m/wd/hub/status[39m
[35m[HTTP][39m [90m{}[39m
[35m[HTTP][39m [37m<-- GET /wd/hub/status [39m[32m200[39m [90m1 ms - 68[39m
[35m[HTTP][39m [90m[39m
[35m[HTTP][39m [37m-->[39m [37mPOST[39m [37m/wd/hub/session/2f41c18d-e20b-4c01-a5d2-89af0e6f0e45/timeouts[39m
[35m[HTTP][39m [90m{"implicit":60000}[39m
[35m[HTTP][39m [37m<-- POST /wd/hub/session/2f41c18d-e20b-4c01-a5d2-89af0e6f0e45/timeouts [39m[32m200[39m [90m2 ms - 14[39m
[35m[HTTP][39m [90m[39m
[35m[HTTP][39m [37m-->[39m [37mGET[39m [37m/wd/hub/session/2f41c18d-e20b-4c01-a5d2-89af0e6f0e45/screenshot[39m
[35m[HTTP][39m [90m{}[39m
[35m[HTTP][39m [37m<-- GET /wd/hub/session/2f41c18d-e20b-4c01-a5d2-89af0e6f0e45/screenshot [39m[32m200[39m [90m1370 ms - 219234[39m
[35m[HTTP][39m [90m[39m
[35m[HTTP][39m [37m-->[39m [37mGET[39m [37m/wd/hub/session/2f41c18d-e20b-4c01-a5d2-89af0e6f0e45/window/rect[39m
[35m[HTTP][39m [90m{}[39m
[35m[HTTP][39m [37m<-- GET /wd/hub/session/2f41c18d-e20b-4c01-a5d2-89af0e6f0e45/window/rect [39m[32m200[39m [90m166 ms - 50[39m
[35m[HTTP][39m [90m[39m
[35m[HTTP][39m [37m-->[39m [37mGET[39m [37m/wd/hub/session/2f41c18d-e20b-4c01-a5d2-89af0e6f0e45/appium/device/system_bars[39m
[35m[HTTP][39m [90m{}[39m
[35m[HTTP][39m [37m<-- GET /wd/hub/session/2f41c18d-e20b-4c01-a5d2-89af0e6f0e45/appium/device/system_bars [39m[32m200[39m [90m463 ms - 148[39m
[35m[HTTP][39m [90m[39m
[35m[HTTP][39m [37m-->[39m [37mPOST[39m [37m/wd/hub/session/2f41c18d-e20b-4c01-a5d2-89af0e6f0e45/appium/device/activate_app[39m
[35m[HTTP][39m [90m{"bundleId":"com.dev.jakone.mbanking"}[39m
[35m[HTTP][39m [37m<-- POST /wd/hub/session/2f41c18d-e20b-4c01-a5d2-89af0e6f0e45/appium/device/activate_app [39m[32m200[39m [90m1798 ms - 14[39m
[35m[HTTP][39m [90m[39m
[35m[HTTP][39m [37m-->[39m [37mGET[39m [37m/wd/hub/session/2f41c18d-e20b-4c01-a5d2-89af0e6f0e45/source[39m
[35m[HTTP][39m [90m{}[39m
[35m[W3C (2f41c18d)][39m Driver proxy active, passing request on via HTTP proxy
[35m[WD Proxy][39m Replacing sessionId e39b980b-88be-4914-81b6-171af26105cb with 2f41c18d-e20b-4c01-a5d2-89af0e6f0e45
[35m[HTTP][39m [37m<-- GET /wd/hub/session/2f41c18d-e20b-4c01-a5d2-89af0e6f0e45/source [39m[32m200[39m [90m800 ms - 10704[39m
[35m[HTTP][39m [90m[39m
[35m[HTTP][39m [37m-->[39m [37mGET[39m [37m/wd/hub/session/2f41c18d-e20b-4c01-a5d2-89af0e6f0e45/screenshot[39m
[35m[HTTP][39m [90m{}[39m
[35m[HTTP][39m [37m<-- GET /wd/hub/session/2f41c18d-e20b-4c01-a5d2-89af0e6f0e45/screenshot [39m[32m200[39m [90m565 ms - 125280[39m
[35m[HTTP][39m [90m[39m
[35m[HTTP][39m [37m-->[39m [37mGET[39m [37m/wd/hub/session/2f41c18d-e20b-4c01-a5d2-89af0e6f0e45/source[39m
[35m[HTTP][39m [90m{}[39m
[35m[W3C (2f41c18d)][39m Driver proxy active, passing request on via HTTP proxy
[35m[WD Proxy][39m Replacing sessionId e39b980b-88be-4914-81b6-171af26105cb with 2f41c18d-e20b-4c01-a5d2-89af0e6f0e45
[35m[HTTP][39m [37m<-- GET /wd/hub/session/2f41c18d-e20b-4c01-a5d2-89af0e6f0e45/source [39m[32m200[39m [90m592 ms - 11172[39m
[35m[HTTP][39m [90m[39m
[35m[HTTP][39m [37m-->[39m [37mGET[39m [37m/wd/hub/session/2f41c18d-e20b-4c01-a5d2-89af0e6f0e45/screenshot[39m
[35m[HTTP][39m [90m{}[39m
[35m[HTTP][39m [37m<-- GET /wd/hub/session/2f41c18d-e20b-4c01-a5d2-89af0e6f0e45/screenshot [39m[32m200[39m [90m844 ms - 151620[39m
[35m[HTTP][39m [90m[39m
[35m[HTTP][39m [37m-->[39m [37mPOST[39m [37m/wd/hub/session/2f41c18d-e20b-4c01-a5d2-89af0e6f0e45/elements[39m
[35m[HTTP][39m [90m{"using":"xpath","value":"//*[@class = 'android.view.View' and @resource-id = '' and (@text = '' or . = '')]"}[39m
[35m[HTTP][39m [37m<-- POST /wd/hub/session/2f41c18d-e20b-4c01-a5d2-89af0e6f0e45/elements [39m[32m200[39m [90m1083 ms - 2443[39m
[35m[HTTP][39m [90m[39m
[35m[HTTP][39m [37m-->[39m [37mPOST[39m [37m/wd/hub/session/2f41c18d-e20b-4c01-a5d2-89af0e6f0e45/elements[39m
[35m[HTTP][39m [90m{"using":"accessibility id","value":"Invalid PIN. Please make sure you enter valid PIN. (0034)"}[39m
[35m[HTTP][39m [37m<-- POST /wd/hub/session/2f41c18d-e20b-4c01-a5d2-89af0e6f0e45/elements [39m[32m200[39m [90m60083 ms - 12[39m
[35m[HTTP][39m [90m[39m
[35m[HTTP][39m [37m-->[39m [37mPOST[39m [37m/wd/hub/session/2f41c18d-e20b-4c01-a5d2-89af0e6f0e45/elements[39m
[35m[HTTP][39m [90m{"using":"-android uiautomator","value":"new UiSelector().className(\"android.view.View\").resourceId(\"\")"}[39m
[35m[HTTP][39m [37m<-- POST /wd/hub/session/2f41c18d-e20b-4c01-a5d2-89af0e6f0e45/elements [39m[32m200[39m [90m444 ms - 2443[39m
[35m[HTTP][39m [90m[39m
